{
  "title": "Insaas",
  "services": {
    "query": {
      "idQueue": [
        1,
        2,
        3,
        4
      ],
      "list": {
        "0": {
          "query": "*:*",
          "alias": "",
          "color": "#7EB26D",
          "id": 0,
          "pin": false,
          "type": "lucene"
        }
      },
      "ids": [
        0
      ]
    },
    "filter": {
      "idQueue": [
        0,
        1,
        2
      ],
      "list": {
        "0": {
          "from": "NOW/YEAR-5YEAR",
          "to": "NOW/YEAR%2B1YEAR",
          "field": "date",
          "type": "time",
          "fromDateObj": "2006-01-01T06:44:36.927Z",
          "toDateObj": "2021-01-01T06:44:36.927Z",
          "mandate": "must",
          "active": false,
          "alias": "",
          "id": 0
        }
      },
      "ids": []
    }
  },
  "rows": [
    {
      "title": "Query",
      "height": "50px",
      "editable": true,
      "collapse": false,
      "collapsable": true,
      "panels": [
        {
          "span": 10,
          "editable": true,
          "type": "hits",
          "loadingEditor": false,
          "queries": {
            "mode": "all",
            "ids": [
              0
            ],
            "query": "q=*%3A*&stats=true&stats.field=id&wt=json&rows=0\n",
            "basic_query": "",
            "custom": "q=*%3A*&stats=true&stats.field=id&wt=json&rows=0\n"
          },
          "style": {
            "font-size": "14pt"
          },
          "arrangement": "horizontal",
          "chart": "total",
          "counter_pos": "above",
          "donut": false,
          "tilt": false,
          "labels": true,
          "spyable": true,
          "title": " ",
          "show_queries": true,
          "metrics": [
            {
              "type": "count",
              "field": "id",
              "decimalDigits": 0,
              "label": " ",
              "value": "Total reviews : 1765"
            }
          ],
          "refresh": {
            "enable": false,
            "interval": 2
          }
        }
      ]
    },
    {
      "title": " ",
      "height": "200px",
      "editable": false,
      "collapse": false,
      "collapsable": false,
      "panels": [
        {
          "span": 4,
          "editable": true,
          "type": "terms",
          "loadingEditor": false,
          "queries": {
            "mode": "all",
            "ids": [
              0
            ],
            "query": "q=*%3A*&wt=json&rows=0&facet=true&facet.field=Sentiment&facet.limit=3&facet.missing=false&f.Sentiment.facet.sort=label",
            "custom": ""
          },
          "mode": "count",
          "field": "Sentiment",
          "stats_field": "",
          "decimal_points": 0,
          "exclude": [
            "0"
          ],
          "missing": false,
          "other": false,
          "size": 10,
          "pages": 10,
          "sortBy": "label",
          "order": "descending",
          "style": {
            "font-size": "10pt"
          },
          "donut": false,
          "tilt": false,
          "labels": true,
          "logAxis": false,
          "arrangement": "horizontal",
          "chart": "pie",
          "counter_pos": "above",
          "exportSize": 100,
          "lastColor": "",
          "spyable": true,
          "show_queries": true,
          "chartColors": [
            "#7EB26D",
            "#0000FF",
	    "#e60000",
            "#e60000",
            "#EF843C",
            "#E24D42",
            "#1F78C1",
            "#BA43A9",
            "#705DA0",
            "#508642",
            "#CCA300",
            "#447EBC",
            "#C15C17",
            "#890F02",
            "#0A437C",
            "#6D1F62",
            "#584477",
            "#B7DBAB",
            "#F4D598",
            "#70DBED",
            "#F9BA8F",
            "#F29191",
            "#82B5D8",
            "#E5A8E2",
            "#AEA2E0",
            "#629E51",
            "#E5AC0E",
            "#64B0C8",
            "#E0752D",
            "#BF1B00",
            "#0A50A1",
            "#962D82",
            "#614D93",
            "#9AC48A",
            "#F2C96D",
            "#65C5DB",
            "#F9934E",
            "#EA6460",
            "#5195CE",
            "#D683CE",
            "#806EB7",
            "#3F6833",
            "#967302",
            "#2F575E",
            "#99440A",
            "#58140C",
            "#052B51",
            "#511749",
            "#3F2B5B",
            "#E0F9D7",
            "#FCEACA",
            "#CFFAFF",
            "#F9E2D2",
            "#FCE2DE",
            "#BADFF4",
            "#F9D9F9",
            "#DEDAF7"
          ],
          "refresh": {
            "enable": false,
            "interval": 2
          }
        }
      ]
    },
    {
      "title": " ",
      "height": "150px",
      "editable": false,
      "collapse": false,
      "collapsable": false,
      "panels": [
        {
          "span": 5,
          "editable": true,
          "type": "terms",
          "loadingEditor": false,
          "queries": {
            "mode": "all",
            "ids": [
              0
            ],
            "query": "q=*%3A*&wt=json&rows=0&facet=true&facet.field=Aspect&facet.limit=20&facet.missing=true&f.Aspect.facet.sort=count",
            "custom": ""
          },
          "mode": "count",
          "field": "Aspect",
          "stats_field": "",
          "decimal_points": 0,
          "exclude": [],
          "missing": false,
          "other": false,
          "size": 20,
          "pages": 20,
          "sortBy": "count",
          "order": "descending",
          "style": {
            "font-size": "10pt"
          },
          "donut": false,
          "tilt": false,
          "labels": true,
          "logAxis": false,
          "arrangement": "horizontal",
          "chart": "bar",
          "counter_pos": "above",
          "exportSize": 100,
          "lastColor": "",
          "spyable": true,
          "show_queries": true,
          "chartColors": [
		"#000000",
"#0d0d0d",
"#1a1a1a",
"#262626",
"#333333",
"#404040",
"#4d4d4d",
"#595959",
"#666666",
"#737373",
"#808080",
"#8c8c8c",
"#999999",
"#a6a6a6",
"#b3b3b3",
"#bfbfbf",
"#cccccc",
"#d9d9d9",
"#e6e6e6",
"#f2f2f2",
"#ffffff"
	],
          "refresh": {
            "enable": false,
            "interval": 2
          }
        }
      ]
    },
    {
      "title": "Filter",
      "height": "150px",
      "editable": true,
      "collapse": false,
      "collapsable": true,
      "panels": [
        {
          "span": 4,
          "editable": true,
          "type": "terms",
          "loadingEditor": false,
          "queries": {
            "mode": "all",
            "ids": [
              0
            ],
            "query": "q=*%3A*&wt=json&facet=true&facet.field=Aspect&facet.limit=10&facet.missing=true&f.Aspect.facet.sort=count&fq=Sentiment:negative",
            "custom": "&fq=Sentiment:negative"
          },
          "mode": "count",
          "field": "Aspect",
          "stats_field": "",
          "decimal_points": 0,
          "exclude": [],
          "missing": false,
          "other": false,
          "size": 10,
          "sortBy": "count",
          "order": "descending",
          "style": {
            "font-size": "10pt"
          },
          "donut": false,
          "tilt": false,
          "labels": true,
          "logAxis": false,
          "arrangement": "horizontal",
          "chart": "bar",
          "counter_pos": "above",
          "exportSize": 10000,
          "lastColor": "rgb(234,184,57)",
          "spyable": true,
          "show_queries": true,
          "chartColors": [
            "#E24D42",
            "#E24D42",
            "#E24D42",
            "#E24D42",
            "#E24D42",
            "#E24D42",
            "#E24D42",
            "#E24D42",
            "#E24D42",
            "#E24D42",
            "#E24D42",
            "#C15C17",
            "#890F02",
            "#0A437C",
            "#6D1F62",
            "#584477",
            "#B7DBAB",
            "#F4D598",
            "#70DBED",
            "#F9BA8F",
            "#F29191",
            "#82B5D8",
            "#E5A8E2",
            "#AEA2E0",
            "#629E51",
            "#E5AC0E",
            "#64B0C8",
            "#E0752D",
            "#BF1B00",
            "#0A50A1",
            "#962D82",
            "#614D93",
            "#9AC48A",
            "#F2C96D",
            "#65C5DB",
            "#F9934E",
            "#EA6460",
            "#5195CE",
            "#D683CE",
            "#806EB7",
            "#3F6833",
            "#967302",
            "#2F575E",
            "#99440A",
            "#58140C",
            "#052B51",
            "#511749",
            "#3F2B5B",
            "#E0F9D7",
            "#FCEACA",
            "#CFFAFF",
            "#F9E2D2",
            "#FCE2DE",
            "#BADFF4",
            "#F9D9F9",
            "#DEDAF7"
          ],
          "refresh": {
            "enable": false,
            "interval": 2
          }
        }
      ]
    },
    {
      "title": "Events",
      "height": "250px",
      "editable": false,
      "collapse": false,
      "collapsable": false,
      "panels": [
        {
          "span": 4,
          "editable": true,
          "type": "terms",
          "loadingEditor": false,
          "queries": {
            "mode": "all",
            "ids": [
              0
            ],
            "query": "q=*%3A*&wt=json&facet=true&facet.field=Aspect&facet.limit=10&facet.missing=true&f.Aspect.facet.sort=count&fq=Sentiment:positive",
            "custom": "&fq=Sentiment:positive"
          },
          "mode": "count",
          "field": "Aspect",
          "stats_field": "",
          "decimal_points": 0,
          "exclude": [],
          "missing": false,
          "other": false,
          "size": 10,
          "sortBy": "count",
          "order": "descending",
          "style": {
            "font-size": "10pt"
          },
          "donut": false,
          "tilt": false,
          "labels": true,
          "logAxis": false,
          "arrangement": "horizontal",
          "chart": "bar",
          "counter_pos": "above",
          "exportSize": 10000,
          "lastColor": "",
          "spyable": true,
          "show_queries": true,
          "chartColors": [
            "#7EB26D",
            "#7EB26D",
            "#7EB26D",
            "#7EB26D",
            "#7EB26D",
            "#7EB26D",
            "#7EB26D",
            "#7EB26D",
            "#7EB26D",
            "#7EB26D",
            "#E24D42",
            "#E24D42",
            "#E24D42",
            "#E24D42",
            "#6D1F62",
            "#584477",
            "#B7DBAB",
            "#F4D598",
            "#70DBED",
            "#F9BA8F",
            "#F29191",
            "#82B5D8",
            "#E5A8E2",
            "#AEA2E0",
            "#629E51",
            "#E5AC0E",
            "#64B0C8",
            "#E0752D",
            "#BF1B00",
            "#0A50A1",
            "#962D82",
            "#614D93",
            "#9AC48A",
            "#F2C96D",
            "#65C5DB",
            "#F9934E",
            "#EA6460",
            "#5195CE",
            "#D683CE",
            "#806EB7",
            "#3F6833",
            "#967302",
            "#2F575E",
            "#99440A",
            "#58140C",
            "#052B51",
            "#511749",
            "#3F2B5B",
            "#E0F9D7",
            "#FCEACA",
            "#CFFAFF",
            "#F9E2D2",
            "#FCE2DE",
            "#BADFF4",
            "#F9D9F9",
            "#DEDAF7"
          ],
          "refresh": {
            "enable": false,
            "interval": 2
          }
        }
      ]
    },
    {
      "title": "Events",
      "height": "150px",
      "editable": false,
      "collapse": false,
      "collapsable": false,
      "panels": []
    },
    {
      "title": "Query and Time Window",
      "height": "50px",
      "editable": true,
      "collapse": false,
      "collapsable": true,
      "panels": [
        {
          "error": "",
          "span": 5,
          "editable": true,
          "type": "timepicker",
          "loadingEditor": false,
          "status": "Stable",
          "mode": "relative",
          "time_options": [
            "5m",
            "15m",
            "1h",
            "6h",
            "12h",
            "24h",
            "7d",
            "30d",
            "90d",
            "1y",
            "5y"
          ],
          "timespan": "1y",
          "timefield": "date",
          "timeformat": "",
          "refresh": {
            "enable": false,
            "interval": 30,
            "min": 3
          },
          "filter_id": 0,
          "spyable": true,
          "title": "Time Window"
        }
      ]
    },
    {
      "title": "Filters",
      "height": "50px",
      "editable": true,
      "collapse": false,
      "collapsable": true,
      "panels": [
        {
          "error": false,
          "span": 12,
          "editable": true,
          "spyable": true,
          "group": [
            "default"
          ],
          "type": "filtering"
        }
      ]
    },
    {
      "title": " ",
      "height": "250px",
      "editable": true,
      "collapse": false,
      "collapsable": true,
      "panels": [
        {
          "span": 12,
          "editable": true,
          "type": "histogram",
          "loadingEditor": false,
          "mode": "count",
          "time_field": "date",
          "queries": {
            "mode": "all",
            "ids": [
              0
            ],
            "query": "q=*%3A*&wt=json&rows=0&fq=date:[NOW/YEAR-5YEAR%20TO%20NOW/YEAR%2B1YEAR]&facet=true&facet.range=date&facet.range.start=NOW/YEAR-5YEAR&facet.range.end=NOW/YEAR%2B1YEAR&facet.range.gap=%2B1DAY\n",
            "custom": ""
          },
          "max_rows": 100000,
          "value_field": null,
          "group_field": null,
          "auto_int": true,
          "resolution": 100,
          "interval": "1d",
          "intervals": [
            "auto",
            "1s",
            "1m",
            "5m",
            "10m",
            "30m",
            "1h",
            "3h",
            "12h",
            "1d",
            "1w",
            "1M",
            "1y"
          ],
          "fill": 0,
          "linewidth": 3,
          "timezone": "browser",
          "spyable": true,
          "zoomlinks": true,
          "bars": true,
          "stack": true,
          "points": false,
          "lines": false,
          "legend": true,
          "x-axis": true,
          "y-axis": true,
          "percentage": false,
          "interactive": true,
          "options": true,
          "tooltip": {
            "value_type": "cumulative",
            "query_as_alias": false
          },
          "title": " ",
          "lines_smooth": false,
          "sum_value": false,
          "show_queries": true,
          "refresh": {
            "enable": false,
            "interval": 2
          }
        }
      ]
    }
  ],
  "editable": true,
  "index": {
    "interval": "none",
    "pattern": "[logstash-]YYYY.MM.DD",
    "default": "_all"
  },
  "style": "light",
  "failover": false,
  "panel_hints": true,
  "loader": {
    "save_gist": false,
    "save_elasticsearch": true,
    "save_local": true,
    "save_default": true,
    "save_temp": true,
    "save_temp_ttl_enable": true,
    "save_temp_ttl": "30d",
    "load_gist": true,
    "load_elasticsearch": true,
    "load_elasticsearch_size": 20,
    "load_local": true,
    "hide": false,
    "dropdown_collections": false,
    "save_as_public": false
  },
  "solr": {
    "server": "http://52.166.120.210/bwcinsaasdbstorage/",
    "core_name": "insuranceAllReview",
    "core_list": [],
    "global_params": ""
  },
  "username": "guest",
  "home": true
}
